Team_Records_Dataset
…
# make a version of team_diff dataset that has 
# just the team name and id variables
team_names <- team_diff %>% select(team_name, team_id) %>% distinct()

# get the team names in the table with wins and losses
joined_table <- wins_losses_table %>%
  left_join(team_names, by = "team_id") %>%
  select(team_id, team_name, total_wins, total_losses)

# Here is the final table with team_id, team_name, and total wins and losses
joined_table

# A tibble: 454 × 4
   team_id                  team_name           total_wins total_losses
   <chr>                    <chr>                    <int>        <int>
 1 6020bc70f1e4807cc7002386 ROGUE                      146          151
 2 6020bc70f1e4807cc7002389 SPACESTATION GAMING        195          141
 3 6020bc70f1e4807cc70023a0 NRG ESPORTS                192          138
 4 6020bc70f1e4807cc70023a4 VODAFONE GIANTS             52           53
 5 6020bc70f1e4807cc70023a5 G2 ESPORTS                 246          136
 6 6020bc70f1e4807cc70023b2 TEAM ENVY                  118          108
 7 6020bc70f1e4807cc70023c9 LUCKY BOUNCE                22           31
 8 6020bc70f1e4807cc70023d6 FTW ESPORTS                 27           39
 9 6020bc70f1e4807cc70023d9 ENDPOINT                   147          136
10 6020bc70f1e4807cc70023e9 DIGNITAS                   163          113
# ℹ 444 more rows
